Kdrs;Klsrs;Norm;Klsrawat;Biaya;Jnsrawat;Tglmsk;Tglklr;Los;Tgllhr;UmurThn;UmurHari;JK;CaraPlg;Berat;Dutama;D1;D2;D3;D4;D5;D6;D7;D8;D9;D10;D11;D12;D13;D14;D15;D16;D17;D18;D19;D20;D21;D22;D23;D24;D25;D26;D27;D28;D29;P1;P2;P3;P4;P5;P6;P7;P8;P9;P10;P11;P12;P13;P14;P15;P16;P17;P18;P19;P20;P21;P22;P23;P24;P25;P26;P27;P28;P29;P30;Recid;Inacbg;Tarif;Deskripsi;ALOS;NamaPasien;DPJP;SKP;Rujukan;BHP;HargaBHP;PengesahanSL3;C1;C2;C3
KDRS;KLSRS;123456;KLSRAWAT;30000.00;1;2013-01-14;2013-01-14;0;2011-07-09;2;599;2;;0;;;;;;;;;;;;;;;;;;;;;;;;;;;;;;;;;;;;;;;;;;;;;;;;;;;;;;;;;;;;;;;0;;0;Zakiah Zuhro , An;Siswanto Marudut,dr SpA;^0;TIDAK;;0;tidak ada;;1;
KDRS;KLSRS;123654;KLSRAWAT;30000.00;1;2013-01-14;2013-01-14;0;1993-05-27;20;7216;2;;0;;;;;;;;;;;;;;;;;;;;;;;;;;;;;;;;;;;;;;;;;;;;;;;;;;;;;;;;;;;;;;;0;;0;Widya Dhirani Hartono Nn, Nn;INDRA JANUWARTRI, dr SpA;^0;TIDAK;;0;tidak ada;;1;
KDRS;KLSRS;111222;KLSRAWAT;30000.00;1;2013-02-05;2013-02-05;0;1998-05-23;15;5394;1;;0;A05.9;R87.2;T00;;;;;;;;;;;;;;;;;;;;;;;;;;;;08.02;01.19;02.06;;;;;;;;;;;;;;;;;;;;;;;;;;;;;;0;;0;Bijak Harry Yudanto, An;Desi Fitriani. Dr, SpPD;^0;TIDAK;;0;tidak ada;;1;
KDRS;KLSRS;111222;KLSRAWAT;22500.00;1;2013-02-05;2013-02-05;0;1998-05-23;15;5394;1;;0;A05.9;R87.2;T00;;;;;;;;;;;;;;;;;;;;;;;;;;;;08.02;01.19;02.06;;;;;;;;;;;;;;;;;;;;;;;;;;;;;;0;;0;Bijak Harry Yudanto, An;Desi Fitriani. Dr, SpPD;^0;TIDAK;;0;tidak ada;;1;
KDRS;KLSRS;111222;KLSRAWAT;25000.00;1;2013-02-05;2013-02-05;0;1998-05-23;15;5394;1;;0;A05.9;R87.2;T00;;;;;;;;;;;;;;;;;;;;;;;;;;;;08.02;01.19;02.06;;;;;;;;;;;;;;;;;;;;;;;;;;;;;;0;;0;Bijak Harry Yudanto, An;Desi Fitriani. Dr, SpPD;^0;TIDAK;;0;tidak ada;;1;
KDRS;KLSRS;111222;KLSRAWAT;22500.00;1;2013-02-05;2013-02-05;0;1998-05-23;15;5394;1;;0;A05.9;R87.2;T00;;;;;;;;;;;;;;;;;;;;;;;;;;;;08.02;01.19;02.06;;;;;;;;;;;;;;;;;;;;;;;;;;;;;;0;;0;Bijak Harry Yudanto, An;Desi Fitriani. Dr, SpPD;^0;TIDAK;;0;tidak ada;;1;
KDRS;KLSRS;123123;KLSRAWAT;30000.00;1;2013-02-06;2013-02-06;0;1991-02-01;22;8062;2;;0;;;;;;;;;;;;;;;;;;;;;;;;;;;;;;;;;;;;;;;;;;;;;;;;;;;;;;;;;;;;;;;0;;0;Elok Khairun Nisa, Nn;INDRA JANUWARTRI, dr SpA;^0;ADA;;0;tidak ada;;1;
KDRS;KLSRS;123123;KLSRAWAT;30000.00;1;2013-02-07;2013-02-07;0;1991-02-01;22;8062;2;;0;;;;;;;;;;;;;;;;;;;;;;;;;;;;;;;;;;;;;;;;;;;;;;;;;;;;;;;;;;;;;;;0;;0;Elok Khairun Nisa, Nn;Henru K. dr SpB, KBD;^0;TIDAK;;0;tidak ada;;1;
KDRS;KLSRS;123321;KLSRAWAT;30000.00;1;2013-02-07;2013-02-07;0;1967-01-01;46;16859;2;;0;;;;;;;;;;;;;;;;;;;;;;;;;;;;;;;;;;;;;;;;;;;;;;;;;;;;;;;;;;;;;;;0;;0;Onyi Sutinah  Ny;Henru K. dr SpB, KBD;^0;TIDAK;;0;tidak ada;;1;
KDRS;KLSRS;123456;KLSRAWAT;30000.00;1;2013-02-10;2013-02-10;0;2011-07-09;2;599;2;;0;;;;;;;;;;;;;;;;;;;;;;;;;;;;;;;;;;;;;;;;;;;;;;;;;;;;;;;;;;;;;;;0;;0;Zakiah Zuhro , An;Desi Fitriani. Dr, SpPD;^0;TIDAK;;0;tidak ada;;1;
KDRS;KLSRS;138952;KLSRAWAT;30000.00;1;2013-02-11;2013-02-11;0;1981-11-19;32;11423;1;;0;;;;;;;;;;;;;;;;;;;;;;;;;;;;;;;;;;;;;;;;;;;;;;;;;;;;;;;;;;;;;;;0;;0;trtr;Henru K. dr SpB, KBD;^0;TIDAK;;0;tidak ada;;1;
KDRS;KLSRS;138952;KLSRAWAT;30000.00;1;2013-02-12;2013-02-12;0;1981-11-19;32;11423;1;;0;;;;;;;;;;;;;;;;;;;;;;;;;;;;;;;;;;;;;;;;;;;;;;;;;;;;;;;;;;;;;;;0;;0;trtr;Desi Fitriani. Dr, SpPD;^0;TIDAK;;0;tidak ada;;1;
KDRS;KLSRS;138952;KLSRAWAT;30000.00;1;2013-02-12;2013-02-12;0;1981-11-19;32;11423;1;;0;;;;;;;;;;;;;;;;;;;;;;;;;;;;;;;;;;;;;;;;;;;;;;;;;;;;;;;;;;;;;;;0;;0;trtr;Henru K. dr SpB, KBD;^0;TIDAK;;0;tidak ada;;1;
KDRS;KLSRS;138953;KLSRAWAT;30000.00;1;2013-02-12;2013-02-12;0;1976-09-15;37;13314;1;;0;;;;;;;;;;;;;;;;;;;;;;;;;;;;;;;;;;;;;;;;;;;;;;;;;;;;;;;;;;;;;;;0;;0;umar;Henru K. dr SpB, KBD;^0;TIDAK;;0;tidak ada;;1;
KDRS;KLSRS;138953;KLSRAWAT;30000.00;1;2013-02-12;2013-02-12;0;1976-09-15;37;13314;1;;0;;;;;;;;;;;;;;;;;;;;;;;;;;;;;;;;;;;;;;;;;;;;;;;;;;;;;;;;;;;;;;;0;;0;umar;Henru K. dr SpB, KBD;^0;TIDAK;;0;tidak ada;;1;
KDRS;KLSRS;138954;KLSRAWAT;30000.00;1;2013-02-12;2013-02-12;0;1964-05-14;49;17821;2;;0;;;;;;;;;;;;;;;;;;;;;;;;;;;;;;;;;;;;;;;;;;;;;;;;;;;;;;;;;;;;;;;0;;0;kuya batok;Henru K. dr SpB, KBD;^0;TIDAK;;0;tidak ada;;1;
KDRS;KLSRS;138952;KLSRAWAT;30000.00;1;2013-02-12;2013-02-12;0;1981-11-19;32;11423;1;;0;;;;;;;;;;;;;;;;;;;;;;;;;;;;;;;;;;;;;;;;;;;;;;;;;;;;;;;;;;;;;;;0;;0;trtr;SIGIT, drg;^0;TIDAK;;0;tidak ada;;1;
KDRS;KLSRS;138953;KLSRAWAT;10000.00;1;2013-02-12;2013-02-12;0;1976-09-15;37;13314;1;;0;;;;;;;;;;;;;;;;;;;;;;;;;;;;;;;;;;;;;;;;;;;;;;;;;;;;;;;;;;;;;;;0;;0;umar;Henru K. dr SpB, KBD;^0;TIDAK;;0;tidak ada;;1;
KDRS;KLSRS;123321;KLSRAWAT;10000.00;1;2013-02-13;2013-02-13;0;1967-01-01;46;16859;2;;0;;;;;;;;;;;;;;;;;;;;;;;;;;;;;;;;;;;;;;;;;;;;;;;;;;;;;;;;;;;;;;;0;;0;Onyi Sutinah  Ny;Perawat;^0;TIDAK;;0;tidak ada;;1;
KDRS;KLSRS;138953;KLSRAWAT;30000.00;1;2013-02-14;2013-02-14;0;1976-09-15;37;13314;1;;0;;;;;;;;;;;;;;;;;;;;;;;;;;;;;;;;;;;;;;;;;;;;;;;;;;;;;;;;;;;;;;;0;;0;umar;Lieska. dr SpM;^0;TIDAK;;0;tidak ada;;1;
KDRS;KLSRS;138955;KLSRAWAT;30000.00;1;2013-02-15;2013-02-15;0;1966-09-13;47;16969;2;;0;;;;;;;;;;;;;;;;;;;;;;;;;;;;;;;;;;;;;;;;;;;;;;;;;;;;;;;;;;;;;;;0;;0;haseum;Desi Fitriani. Dr, SpPD;^0;TIDAK;;0;tidak ada;;1;
KDRS;KLSRS;138952;KLSRAWAT;30000.00;1;2013-02-16;2013-02-16;0;1981-11-19;32;11423;1;;0;;;;;;;;;;;;;;;;;;;;;;;;;;;;;;;;;;;;;;;;;;;;;;;;;;;;;;;;;;;;;;;0;;0;trtr;Desi Fitriani. Dr, SpPD;^0;TIDAK;;0;tidak ada;;1;
KDRS;KLSRS;123456;KLSRAWAT;30000.00;1;2013-02-21;2013-02-21;0;2011-07-09;2;599;2;;0;;;;;;;;;;;;;;;;;;;;;;;;;;;;;;;;;;;;;;;;;;;;;;;;;;;;;;;;;;;;;;;0;;0;Zakiah Zuhro , An;Henru K. dr SpB, KBD;^0;TIDAK;;0;tidak ada;;1;
KDRS;KLSRS;132231;KLSRAWAT;30000.00;1;2013-02-21;2013-02-21;0;1962-05-16;51;18550;2;;0;;;;;;;;;;;;;;;;;;;;;;;;;;;;;;;;;;;;;;;;;;;;;;;;;;;;;;;;;;;;;;;0;;0;Naimah  Ny;Lieska. dr SpM;^0;TIDAK;;0;tidak ada;;1;
KDRS;KLSRS;123456;KLSRAWAT;20000.00;1;2013-02-21;2013-02-21;0;2011-07-09;2;599;2;;0;;;;;;;;;;;;;;;;;;;;;;;;;;;;;;;;;;;;;;;;;;;;;;;;;;;;;;;;;;;;;;;0;;0;Zakiah Zuhro , An;Henru K. dr SpB, KBD;^0;TIDAK;;0;tidak ada;;1;
KDRS;KLSRS;123456;KLSRAWAT;18000.00;1;2013-02-21;2013-02-21;0;2011-07-09;2;599;2;;0;;;;;;;;;;;;;;;;;;;;;;;;;;;;;;;;;;;;;;;;;;;;;;;;;;;;;;;;;;;;;;;0;;0;Zakiah Zuhro , An;Henru K. dr SpB, KBD;^0;TIDAK;;0;tidak ada;;1;
KDRS;KLSRS;132231;KLSRAWAT;22500.00;1;2013-02-21;2013-02-21;0;1962-05-16;51;18550;2;;0;;;;;;;;;;;;;;;;;;;;;;;;;;;;;;;;;;;;;;;;;;;;;;;;;;;;;;;;;;;;;;;0;;0;Naimah  Ny;Lieska. dr SpM;^0;TIDAK;;0;tidak ada;;1;
KDRS;KLSRS;132231;KLSRAWAT;17500.00;1;2013-02-21;2013-02-21;0;1962-05-16;51;18550;2;;0;;;;;;;;;;;;;;;;;;;;;;;;;;;;;;;;;;;;;;;;;;;;;;;;;;;;;;;;;;;;;;;0;;0;Naimah  Ny;Lieska. dr SpM;^0;TIDAK;;0;tidak ada;;1;
KDRS;KLSRS;123456;KLSRAWAT;225000.00;1;2013-02-21;2013-02-21;0;2011-07-09;2;599;2;;0;;;;;;;;;;;;;;;;;;;;;;;;;;;;;;;;;;;;;;;;;;;;;;;;;;;;;;;;;;;;;;;0;;0;Zakiah Zuhro , An;Henru K. dr SpB, KBD;^0;TIDAK;;0;tidak ada;;1;
KDRS;KLSRS;132231;KLSRAWAT;200000.00;1;2013-02-21;2013-02-21;0;1962-05-16;51;18550;2;;0;;;;;;;;;;;;;;;;;;;;;;;;;;;;;;;;;;;;;;;;;;;;;;;;;;;;;;;;;;;;;;;0;;0;Naimah  Ny;Lieska. dr SpM;^0;TIDAK;;0;tidak ada;;1;
KDRS;KLSRS;123456;KLSRAWAT;6948.00;1;2013-02-21;2013-02-21;0;2011-07-09;2;599;2;;0;;;;;;;;;;;;;;;;;;;;;;;;;;;;;;;;;;;;;;;;;;;;;;;;;;;;;;;;;;;;;;;0;;0;Zakiah Zuhro , An;Henru K. dr SpB, KBD;^0;TIDAK;;0;tidak ada;;1;
KDRS;KLSRS;132231;KLSRAWAT;29078.00;1;2013-02-21;2013-02-21;0;1962-05-16;51;18550;2;;0;;;;;;;;;;;;;;;;;;;;;;;;;;;;;;;;;;;;;;;;;;;;;;;;;;;;;;;;;;;;;;;0;;0;Naimah  Ny;Lieska. dr SpM;^0;TIDAK;;0;tidak ada;;1;
KDRS;KLSRS;085215;KLSRAWAT;10000.00;2;2013-01-29;;;1931-09-24;82;29742;2;;0;;;;;;;;;;;;;;;;;;;;;;;;;;;;;;;;;;;;;;;;;;;;;;;;;;;;;;;;;;;;;;;0;;0;Namah   Ny ;Desi Fitriani. Dr, SpPD;^0;TIDAK;;0;tidak ada;;1;
KDRS;KLSRS;117316;KLSRAWAT;10000.00;2;2013-02-14;;;1944-10-01;69;24986;1;;0;;;;;;;;;;;;;;;;;;;;;;;;;;;;;;;;;;;;;;;;;;;;;;;;;;;;;;;;;;;;;;;0;;0;Muhamad noch  Tn.;AGUS, dr Sps;^0;ADA;;0;tidak ada;;1;
